Cache Memory Implementation/cpu_wavedata.vcd
$date
	Thu Mar  3 23:48:24 2022
$end
$version
	Icarus Verilog
$end
$timescale
	100ps
$end
$scope module cpu_tb $end
$scope module mycpu $end
$scope module REGISTERFILE $end
$var reg 8 ! \registers[0] [7:0] $end
$upscope $end
$upscope $end
$upscope $end
$scope module cpu_tb $end
$scope module mycpu $end
$scope module REGISTERFILE $end
$var reg 8 " \registers[1] [7:0] $end
$upscope $end
$upscope $end
$upscope $end
$scope module cpu_tb $end
$scope module mycpu $end
$scope module REGISTERFILE $end
$var reg 8 # \registers[2] [7:0] $end
$upscope $end
$upscope $end
$upscope $end
$scope module cpu_tb $end
$scope module mycpu $end
$scope module REGISTERFILE $end
$var reg 8 $ \registers[3] [7:0] $end
$upscope $end
$upscope $end
$upscope $end
$scope module cpu_tb $end
$scope module mycpu $end
$scope module REGISTERFILE $end
$var reg 8 % \registers[4] [7:0] $end
$upscope $end
$upscope $end
$upscope $end
$scope module cpu_tb $end
$scope module mycpu $end
$scope module REGISTERFILE $end
$var reg 8 & \registers[5] [7:0] $end
$upscope $end
$upscope $end
$upscope $end
$scope module cpu_tb $end
$scope module mycpu $end
$scope module REGISTERFILE $end
$var reg 8 ' \registers[6] [7:0] $end
$upscope $end
$upscope $end
$upscope $end
$scope module cpu_tb $end
$scope module mycpu $end
$scope module REGISTERFILE $end
$var reg 8 ( \registers[7] [7:0] $end
$upscope $end
$upscope $end
$upscope $end
$scope module cpu_tb $end
$var wire 32 ) PC [31:0] $end
$var reg 1 * CLK $end
$var reg 32 + INSTRUCTION [31:0] $end
$var reg 1 , RESET $end
$scope module mycpu $end
$var wire 1 * CLK $end
$var wire 32 - INSTRUCTION [31:0] $end
$var wire 1 , RESET $end
$var wire 1 . ZERO $end
$var wire 1 / WRITEENABLE $end
$var wire 8 0 WRITEDATA [7:0] $end
$var wire 1 1 WRITE $end
$var wire 32 2 TARGET [31:0] $end
$var wire 8 3 REGOUT2NEGATIVE [7:0] $end
$var wire 8 4 REGOUT2 [7:0] $end
$var wire 8 5 REGOUT1 [7:0] $end
$var wire 1 6 READ_DATA_SELECT $end
$var wire 8 7 READDATA [7:0] $end
$var wire 1 8 READ $end
$var wire 32 9 PC_VALUE [31:0] $end
$var wire 2 : PC_SELECT [1:0] $end
$var wire 32 ; PC [31:0] $end
$var wire 32 < NEXT [31:0] $end
$var wire 8 = MUXOUT2 [7:0] $end
$var wire 8 > MUXOUT1 [7:0] $end
$var wire 32 ? MEM_WRITEDATA [31:0] $end
$var wire 1 @ MEM_WRITE $end
$var wire 32 A MEM_READDATA [31:0] $end
$var wire 1 B MEM_READ $end
$var wire 1 C MEM_BUSYWAIT $end
$var wire 6 D MEM_ADDRESS [5:0] $end
$var wire 1 E ImmediateEnable $end
$var wire 1 F COMPLEMENT $end
$var wire 1 G BUSYWAIT $end
$var wire 8 H ALURESULT [7:0] $end
$var wire 3 I ALUOP [2:0] $end
$var reg 8 J IMMEDIATE [7:0] $end
$var reg 8 K OFFSET [7:0] $end
$var reg 8 L OPCODE [7:0] $end
$var reg 3 M READREG1 [2:0] $end
$var reg 3 N READREG2 [2:0] $end
$var reg 3 O WRITEREG [2:0] $end
$scope module ALU1 $end
$var wire 8 P TEMP5 [7:0] $end
$var wire 8 Q TEMP6 [7:0] $end
$var wire 8 R TEMP7 [7:0] $end
$var wire 8 S TEMP8 [7:0] $end
$var wire 8 T TEMP4 [7:0] $end
$var wire 8 U TEMP3 [7:0] $end
$var wire 8 V TEMP2 [7:0] $end
$var wire 8 W TEMP1 [7:0] $end
$var wire 3 X SELECT [2:0] $end
$var wire 8 Y RESULT [7:0] $end
$var wire 8 Z DATA2 [7:0] $end
$var wire 8 [ DATA1 [7:0] $end
$var reg 1 . ZERO $end
$scope module ADD1 $end
$var wire 8 \ RESULT [7:0] $end
$var wire 8 ] DATA2 [7:0] $end
$var wire 8 ^ DATA1 [7:0] $end
$upscope $end
$scope module AND1 $end
$var wire 8 _ RESULT [7:0] $end
$var wire 8 ` DATA2 [7:0] $end
$var wire 8 a DATA1 [7:0] $end
$upscope $end
$scope module FORWARD1 $end
$var wire 8 b RESULT [7:0] $end
$var wire 8 c DATA [7:0] $end
$upscope $end
$scope module MUX1 $end
$var wire 8 d DATA1 [7:0] $end
$var wire 8 e DATA2 [7:0] $end
$var wire 8 f DATA3 [7:0] $end
$var wire 8 g DATA5 [7:0] $end
$var wire 8 h DATA6 [7:0] $end
$var wire 8 i DATA7 [7:0] $end
$var wire 8 j DATA8 [7:0] $end
$var wire 3 k SELECT [2:0] $end
$var wire 8 l DATA4 [7:0] $end
$var reg 8 m OUT [7:0] $end
$upscope $end
$scope module OR1 $end
$var wire 8 n RESULT [7:0] $end
$var wire 8 o DATA2 [7:0] $end
$var wire 8 p DATA1 [7:0] $end
$upscope $end
$upscope $end
$scope module CACHE_MEMORY $end
$var wire 8 q C_Address [7:0] $end
$var wire 1 * clock $end
$var wire 1 , reset $end
$var wire 32 r mem_readdata [31:0] $end
$var wire 1 C mem_busywait $end
$var wire 8 s C_WRITEDATA [7:0] $end
$var wire 1 1 C_WRITE $end
$var wire 1 8 C_READ $end
$var reg 32 t BLOCK [31:0] $end
$var reg 8 u C_READDATA [7:0] $end
$var reg 3 v address_tag [2:0] $end
$var reg 1 G busywait $end
$var reg 1 w dirtybit $end
$var reg 1 x hit $end
$var reg 3 y index [2:0] $end
$var reg 6 z mem_address [5:0] $end
$var reg 1 B mem_read $end
$var reg 1 @ mem_write $end
$var reg 32 { mem_writedata [31:0] $end
$var reg 3 | next_state [2:0] $end
$var reg 2 } offset [1:0] $end
$var reg 1 ~ readaccess $end
$var reg 3 !" state [2:0] $end
$var reg 3 "" tag [2:0] $end
$var reg 1 #" validbit $end
$var reg 1 $" writeaccess $end
$var integer 32 %" j [31:0] $end
$upscope $end
$scope module CONTROLUNIT $end
$var wire 1 G BUSYWAIT $end
$var wire 8 &" OPCODE [7:0] $end
$var reg 3 '" ALUOP [2:0] $end
$var reg 1 F COMPLEMENT $end
$var reg 1 E IMMEDIATE $end
$var reg 2 (" PC_SELECTOR [1:0] $end
$var reg 1 8 READ $end
$var reg 1 6 READ_DATA_SELECT $end
$var reg 1 1 WRITE $end
$var reg 1 / WRITEENABLE $end
$upscope $end
$scope module DATA_MEMORY $end
$var wire 6 )" address [5:0] $end
$var wire 1 * clock $end
$var wire 1 B read $end
$var wire 1 , reset $end
$var wire 1 @ write $end
$var wire 32 *" writedata [31:0] $end
$var reg 1 C busywait $end
$var reg 1 +" readaccess $end
$var reg 32 ," readdata [31:0] $end
$var reg 1 -" writeaccess $end
$var integer 32 ." i [31:0] $end
$upscope $end
$scope module MUX1 $end
$var wire 1 F SELECT $end
$var wire 8 /" DATA2 [7:0] $end
$var wire 8 0" DATA1 [7:0] $end
$var reg 8 1" RESULT [7:0] $end
$upscope $end
$scope module MUX2 $end
$var wire 8 2" DATA1 [7:0] $end
$var wire 8 3" DATA2 [7:0] $end
$var wire 1 E SELECT $end
$var reg 8 4" RESULT [7:0] $end
$upscope $end
$scope module NEGATIVE_VAL $end
$var wire 8 5" INPUT [7:0] $end
$var reg 8 6" OUTPUT [7:0] $end
$upscope $end
$scope module PC1 $end
$var wire 1 G BUSYWAIT $end
$var wire 1 * CLK $end
$var wire 1 , RESET $end
$var wire 32 7" NEXT_PC [31:0] $end
$var reg 32 8" PC [31:0] $end
$upscope $end
$scope module PC_UPDATE1 $end
$var wire 2 9" SELECT [1:0] $end
$var wire 1 . ZERO $end
$var wire 32 :" TARGET [31:0] $end
$var wire 32 ;" PC_VALUE [31:0] $end
$var reg 32 <" NEXT [31:0] $end
$upscope $end
$scope module READ_DATA_MUX $end
$var wire 8 =" DATA1 [7:0] $end
$var wire 8 >" DATA2 [7:0] $end
$var wire 1 6 SELECT $end
$var reg 8 ?" RESULT [7:0] $end
$upscope $end
$scope module REGISTERFILE $end
$var wire 1 * CLOCK $end
$var wire 8 @" IN [7:0] $end
$var wire 3 A" INADDRESS [2:0] $end
$var wire 3 B" OUT1ADDRESS [2:0] $end
$var wire 3 C" OUT2ADDRESS [2:0] $end
$var wire 1 , RESET $end
$var wire 1 / WRITE $end
$var reg 8 D" OUT1 [7:0] $end
$var reg 8 E" OUT2 [7:0] $end
$var integer 32 F" i [31:0] $end
$upscope $end
$scope module TARGET_PC1 $end
$var wire 8 G" OFFSET [7:0] $end
$var wire 32 H" PC [31:0] $end
$var wire 32 I" VAL [31:0] $end
$var wire 32 J" SE [31:0] $end
$var reg 32 K" PC_TEMP [31:0] $end
$var reg 32 L" TARGET [31:0] $end
$var reg 32 M" temp [31:0] $end
$scope module S1 $end
$var wire 32 N" OUT [31:0] $end
$var wire 32 O" IN [31:0] $end
$upscope $end
$scope module SE1 $end
$var wire 8 P" IN [7:0] $end
$var wire 32 Q" OUT [31:0] $end
$upscope $end
$upscope $end
$upscope $end
$upscope $end
$enddefinitions $end
#0
$dumpvars
bx Q"
bx P"
bx O"
bx00 N"
bx00 M"
bx L"
bx K"
bx J"
bx00 I"
bx H"
bx G"
b1000 F"
bx E"
bx D"
bx C"
bx B"
bx A"
bx @"
bx ?"
bx >"
bx ="
bx <"
bx ;"
bx :"
bx 9"
bx 8"
bx 7"
bx 6"
bx 5"
bx 4"
bx 3"
bx 2"
bx 1"
bx 0"
bx /"
b100000000 ."
0-"
bx ,"
0+"
bx *"
bx )"
bx ("
bx '"
bx &"
bx %"
0$"
x#"
bx ""
b0 !"
0~
bx }
b0 |
bx {
bx z
bx y
xx
xw
bx v
bx u
bx t
bx s
bx r
bx q
bx p
bx o
bx n
bx m
bx l
bx k
bz j
bz i
bz h
bz g
bx f
bx e
bx d
bx c
bx b
bx a
bx `
bx _
bx ^
bx ]
bx \
bx [
bx Z
bx Y
bx X
bx W
bx V
bx U
bx T
bz S
bz R
bz Q
bz P
bx O
bx N
bx M
bx L
bx K
bx J
bx I
bx H
0G
xF
xE
bx D
0C
0B
bx A
0@
bx ?
bx >
bx =
bx <
bx ;
bx :
bx 9
08
bx 7
x6
bx 5
bx 4
bx 3
bx 2
01
bx 0
x/
x.
bx -
1,
bx +
0*
bx )
bx (
bx '
bx &
bx %
bx $
bx #
bx "
bx !
$end
#10
b1000 %"
#40
1*
#50
b0 (
b0 '
b0 &
b0 %
b0 $
b0 #
b0 "
b0 !
b1000 %"
b0 )
b0 ;
b0 8"
b0 H"
b1000 F"
#60
b100 <
b100 7"
b100 <"
b100 9
b100 ;"
b100 K"
#70
b0 M"
b0 I"
b0 N"
b1001 J
b1001 3"
b1 N
b1 C"
b0 M
b0 B"
b0 O
b0 A"
b0 J"
b0 O"
b0 Q"
b0 K
b0 G"
b0 P"
b0 L
b0 &"
b1001 +
b1001 -
#80
b1001 =
b1001 Z
b1001 ]
b1001 `
b1001 c
b1001 o
b1001 4"
0.
06
b0 :
b0 ("
b0 9"
0F
1E
1/
b0 I
b0 X
b0 k
b0 '"
0*
#90
b0 >
b0 1"
b0 2"
b0 4
b0 0"
b0 5"
b0 E"
b0 5
b0 [
b0 ^
b0 a
b0 p
b0 s
b0 D"
bx1xx1 T
bx1xx1 l
bx1xx1 n
b0x00x U
b0x00x _
b0x00x f
b1001 0
b1001 ?"
b1001 @"
b1001 H
b1001 Y
b1001 m
b1001 q
b1001 ="
b1001 W
b1001 b
b1001 d
b100 2
b100 :"
b100 L"
#100
b0 3
b0 /"
b0 6"
b1001 T
b1001 l
b1001 n
b0 U
b0 _
b0 f
0,
#110
b1001 V
b1001 \
b1001 e
#120
1*
#130
b1001 !
b100 )
b100 ;
b100 8"
b100 H"
#140
b1000 <
b1000 7"
b1000 <"
b1000 9
b1000 ;"
b1000 K"
#150
b1001 5
b1001 [
b1001 ^
b1001 a
b1001 p
b1001 s
b1001 D"
b100 M"
b100 I"
b100 N"
b1 =
b1 Z
b1 ]
b1 `
b1 c
b1 o
b1 4"
b1 J
b1 3"
b1 O
b1 A"
b1 J"
b1 O"
b1 Q"
b1 K
b1 G"
b1 P"
b10000000000000001 +
b10000000000000001 -
#160
b1 U
b1 _
b1 f
b1 0
b1 ?"
b1 @"
b1 H
b1 Y
b1 m
b1 q
b1 ="
b1 W
b1 b
b1 d
0*
#170
b1100 2
b1100 :"
b1100 L"
b1010 V
b1010 \
b1010 e
#200
1*
#210
b1 "
b1000 )
b1000 ;
b1000 8"
b1000 H"
#220
b1100 <
b1100 7"
b1100 <"
b1100 9
b1100 ;"
b1100 K"
#230
b1 >
b1 1"
b1 2"
b1 4
b1 0"
b1 5"
b1 E"
b0 M"
b0 I"
b0 N"
b0 O
b0 A"
b0 J"
b0 O"
b0 Q"
b0 K
b0 G"
b0 P"
b1010 L
b1010 &"
b1010000000000000000000000001 +
b1010000000000000000000000001 -
#240
1$"
1G
b11111111 3
b11111111 /"
b11111111 6"
11
0E
0/
0*
#250
0#"
0w
b0 ""
b0 t
b0 v
b0 y
b1 }
#259
b1 |
0x
#260
b0 7
b0 u
b0 >"
#280
1+"
1C
b0 D
b0 z
b0 )"
1B
b1 |
b1 !"
1*
#320
0*
#360
1*
#400
0*
#440
1*
#480
0*
#520
1*
#560
0*
#600
1*
#640
0*
#680
1*
#720
0*
#760
1*
bx00000000 A
bx00000000 r
bx00000000 ,"
#800
0*
#840
1*
#880
0*
#920
1*
#960
0*
#1000
1*
#1040
0*
#1080
1*
#1120
0*
#1160
1*
bx0000000000000000 A
bx0000000000000000 r
bx0000000000000000 ,"
#1200
0*
#1240
1*
#1280
0*
#1320
1*
#1360
0*
#1400
1*
#1440
0*
#1480
1*
#1520
0*
#1560
1*
bx000000000000000000000000 A
bx000000000000000000000000 r
bx000000000000000000000000 ,"
#1600
0*
#1640
1*
#1680
0*
#1720
1*
#1760
0*
#1800
1*
#1840
0*
#1880
1*
#1920
0*
#1960
bx D
bx z
bx )"
0B
b11 !"
b0 |
1*
0+"
0C
b0 A
b0 r
b0 ,"
#1980
1#"
#1989
1x
#2000
0*
#2040
0$"
01
b0 !"
0G
1*
#2080
0*
#2120
1*
#2130
b1100 )
b1100 ;
b1100 8"
b1100 H"
#2140
b10000 <
b10000 7"
b10000 <"
b10000 9
b10000 ;"
b10000 K"
#2150
b0 J
b0 3"
b0 N
b0 C"
b1 M
b1 B"
b1011 L
b1011 &"
b1011000000000000000100000000 +
b1011000000000000000100000000 -
#2160
1$"
1G
b0 =
b0 Z
b0 ]
b0 `
b0 c
b0 o
b0 4"
11
1E
0*
#2170
b1001 >
b1001 1"
b1001 2"
b1001 4
b1001 0"
b1001 5"
b1001 E"
b1 5
b1 [
b1 ^
b1 a
b1 p
b1 s
b1 D"
1w
b100100000000 t
b0 }
b0 U
b0 _
b0 f
b0 0
b0 ?"
b0 @"
b0 H
b0 Y
b0 m
b0 q
b0 ="
b0 W
b0 b
b0 d
#2180
b11110111 3
b11110111 /"
b11110111 6"
b1 T
b1 l
b1 n
#2190
b1 V
b1 \
b1 e
#2200
0$"
01
0G
1*
#2240
0*
#2280
1*
#2290
b10000 )
b10000 ;
b10000 8"
b10000 H"
#2300
b10100 <
b10100 7"
b10100 <"
b10100 9
b10100 ;"
b10100 K"
#2310
b1000 M"
b1000 I"
b1000 N"
b1 =
b1 Z
b1 ]
b1 `
b1 c
b1 o
b1 4"
b1 J
b1 3"
b1 N
b1 C"
b0 M
b0 B"
b10 O
b10 A"
b10 J"
b10 O"
b10 Q"
b10 K
b10 G"
b10 P"
b1000 L
b1000 &"
b1000000000100000000000000001 +
b1000000000100000000000000001 -
#2320
1~
1G
b1001 =
b1001 Z
b1001 ]
b1001 `
b1001 c
b1001 o
b1001 4"
b1 U
b1 _
b1 f
16
18
0E
1/
b0 0
b0 ?"
b0 @"
b1 H
b1 Y
b1 m
b1 q
b1 ="
b1 W
b1 b
b1 d
0*
#2330
b1 =
b1 Z
b1 ]
b1 `
b1 c
b1 o
b1 4"
b1 >
b1 1"
b1 2"
b1 4
b1 0"
b1 5"
b1 E"
b1001 5
b1001 [
b1001 ^
b1001 a
b1001 p
b1001 s
b1001 D"
0#"
0w
b0 t
b10 y
b1 }
b1001 T
b1001 l
b1001 n
b1001 H
b1001 Y
b1001 m
b1001 q
b1001 ="
b1001 W
b1001 b
b1001 d
b11100 2
b11100 :"
b11100 L"
#2339
b1 |
0x
#2340
b11111111 3
b11111111 /"
b11111111 6"
b1 H
b1 Y
b1 m
b1 q
b1 ="
b1 W
b1 b
b1 d
#2350
b10 |
1#"
1w
b100100000001 t
b0 y
b1010 V
b1010 \
b1010 e
#2359
b0 |
1x
#2360
08
0G
0~
b1001 0
b1001 ?"
b1001 @"
b1001 7
b1001 u
b1001 >"
1*
#2370
b1001 #
#2400
0*
#2440
1*
#2450
b1001 #
b10100 )
b10100 ;
b10100 8"
b10100 H"
#2460
b11000 <
b11000 7"
b11000 <"
b11000 9
b11000 ;"
b11000 K"
#2470
b1100 M"
b1100 I"
b1100 N"
b11 O
b11 A"
b11 J"
b11 O"
b11 Q"
b11 K
b11 G"
b11 P"
b1000000000110000000000000001 +
b1000000000110000000000000001 -
#2480
0*
#2490
b100100 2
b100100 :"
b100100 L"
#2520
1*
#2530
b1001 $
b11000 )
b11000 ;
b11000 8"
b11000 H"
#2540
b11100 <
b11100 7"
b11100 <"
b11100 9
b11100 ;"
b11100 K"
#2550
b10000 M"
b10000 I"
b10000 N"
b100 O
b100 A"
b100 J"
b100 O"
b100 Q"
b100 K
b100 G"
b100 P"
b11 L
b11 &"
b11000001000000000000000001 +
b11000001000000000000000001 -
#2560
b1010 0
b1010 ?"
b1010 @"
b11111111 =
b11111111 Z
b11111111 ]
b11111111 `
b11111111 c
b11111111 o
b11111111 4"
b11111111 >
b11111111 1"
b11111111 2"
b1010 H
b1010 Y
b1010 m
b1010 q
b1010 ="
06
1F
b1 I
b1 X
b1 k
b1 '"
0*
#2570
b11111111 T
b11111111 l
b11111111 n
b1001 U
b1001 _
b1001 f
b11111111 W
b11111111 b
b11111111 d
b101100 2
b101100 :"
b101100 L"
#2580
b1000 0
b1000 ?"
b1000 @"
b1000 H
b1000 Y
b1000 m
b1000 q
b1000 ="
b1000 V
b1000 \
b1000 e
#2600
1*
#2610
b1000 %
b11100 )
b11100 ;
b11100 8"
b11100 H"
#2620
b100000 <
b100000 7"
b100000 <"
b100000 9
b100000 ;"
b100000 K"
#2630
b0 M"
b0 I"
b0 N"
b10 J
b10 3"
b10 N
b10 C"
b100 M
b100 B"
b0 O
b0 A"
b0 J"
b0 O"
b0 Q"
b0 K
b0 G"
b0 P"
b1011 L
b1011 &"
b1011000000000000010000000010 +
b1011000000000000010000000010 -
#2640
1$"
1G
b1 >
b1 1"
b1 2"
b10 =
b10 Z
b10 ]
b10 `
b10 c
b10 o
b10 4"
b11111111 0
b11111111 ?"
b11111111 @"
b11111111 H
b11111111 Y
b11111111 m
b11111111 q
b11111111 ="
11
0F
1E
0/
b0 I
b0 X
b0 k
b0 '"
0*
#2650
b1001 >
b1001 1"
b1001 2"
b1001 4
b1001 0"
b1001 5"
b1001 E"
b1000 5
b1000 [
b1000 ^
b1000 a
b1000 p
b1000 s
b1000 D"
b1011 T
b1011 l
b1011 n
b0 U
b0 _
b0 f
b10 }
b10 0
b10 ?"
b10 @"
b10 H
b10 Y
b10 m
b10 q
b10 ="
b10 W
b10 b
b10 d
b100000 2
b100000 :"
b100000 L"
#2660
b11110111 3
b11110111 /"
b11110111 6"
b1010 T
b1010 l
b1010 n
b0 7
b0 u
b0 >"
#2670
b1010 V
b1010 \
b1010 e
#2680
0$"
01
0G
1*
#2720
0*
#2760
1*
#2770
b100000 )
b100000 ;
b100000 8"
b100000 H"
#2780
b100100 <
b100100 7"
b100100 <"
b100100 9
b100100 ;"
b100100 K"
#2790
b10100 M"
b10100 I"
b10100 N"
b0 M
b0 B"
b101 O
b101 A"
b101 J"
b101 O"
b101 Q"
b101 K
b101 G"
b101 P"
b1001 L
b1001 &"
b1001000001010000000000000010 +
b1001000001010000000000000010 -
#2800
b0 0
b0 ?"
b0 @"
1~
1G
16
18
1/
0*
#2810
b1001 5
b1001 [
b1001 ^
b1001 a
b1001 p
b1001 s
b1001 D"
b10000000100100000001 t
b111000 2
b111000 :"
b111000 L"
#2820
b1011 T
b1011 l
b1011 n
b1000 0
b1000 ?"
b1000 @"
b1000 7
b1000 u
b1000 >"
#2830
b1011 V
b1011 \
b1011 e
#2840
08
0G
0~
1*
#2850
b1000 &
#2880
0*
#2920
1*
#2930
b1000 &
b100100 )
b100100 ;
b100100 8"
b100100 H"
#2940
b101000 <
b101000 7"
b101000 <"
b101000 9
b101000 ;"
b101000 K"
#2950
b0 M"
b0 I"
b0 N"
b100000 =
b100000 Z
b100000 ]
b100000 `
b100000 c
b100000 o
b100000 4"
b100000 J
b100000 3"
b0 N
b0 C"
b100 M
b100 B"
b0 O
b0 A"
b0 J"
b0 O"
b0 Q"
b0 K
b0 G"
b0 P"
b1011 L
b1011 &"
b1011000000000000010000100000 +
b1011000000000000010000100000 -
#2960
1$"
1G
b100000 0
b100000 ?"
b100000 @"
b101001 T
b101001 l
b101001 n
06
11
0/
b100000 H
b100000 Y
b100000 m
b100000 q
b100000 ="
b100000 W
b100000 b
b100000 d
0*
#2970
b1000 5
b1000 [
b1000 ^
b1000 a
b1000 p
b1000 s
b1000 D"
b1 v
b0 }
b101000 2
b101000 :"
b101000 L"
b101001 V
b101001 \
b101001 e
#2979
b10 |
0x
#2980
b101000 T
b101000 l
b101000 n
b1 7
b1 u
b1 >"
#2990
b101000 V
b101000 \
b101000 e
#3000
1-"
1C
b10000000100100000001 ?
b10000000100100000001 {
b10000000100100000001 *"
b0 D
b0 z
b0 )"
1@
b10 |
b10 !"
1*
