Logic Gate Implementations/cpu_wavedata.vcd
$date
	Wed Feb  9 11:43:09 2022
$end
$version
	Icarus Verilog
$end
$timescale
	1s
$end
$scope module cpu_tb $end
$scope module mycpu $end
$scope module REGISTERFILE $end
$var reg 8 ! \registers[0] [7:0] $end
$upscope $end
$upscope $end
$upscope $end
$scope module cpu_tb $end
$scope module mycpu $end
$scope module REGISTERFILE $end
$var reg 8 " \registers[1] [7:0] $end
$upscope $end
$upscope $end
$upscope $end
$scope module cpu_tb $end
$scope module mycpu $end
$scope module REGISTERFILE $end
$var reg 8 # \registers[2] [7:0] $end
$upscope $end
$upscope $end
$upscope $end
$scope module cpu_tb $end
$scope module mycpu $end
$scope module REGISTERFILE $end
$var reg 8 $ \registers[3] [7:0] $end
$upscope $end
$upscope $end
$upscope $end
$scope module cpu_tb $end
$scope module mycpu $end
$scope module REGISTERFILE $end
$var reg 8 % \registers[4] [7:0] $end
$upscope $end
$upscope $end
$upscope $end
$scope module cpu_tb $end
$scope module mycpu $end
$scope module REGISTERFILE $end
$var reg 8 & \registers[5] [7:0] $end
$upscope $end
$upscope $end
$upscope $end
$scope module cpu_tb $end
$scope module mycpu $end
$scope module REGISTERFILE $end
$var reg 8 ' \registers[6] [7:0] $end
$upscope $end
$upscope $end
$upscope $end
$scope module cpu_tb $end
$scope module mycpu $end
$scope module REGISTERFILE $end
$var reg 8 ( \registers[7] [7:0] $end
$upscope $end
$upscope $end
$upscope $end
$scope module cpu_tb $end
$var wire 32 ) PC [31:0] $end
$var reg 1 * CLK $end
$var reg 32 + INSTRUCTION [31:0] $end
$var reg 1 , RESET $end
$scope module mycpu $end
$var wire 1 * CLK $end
$var wire 32 - INSTRUCTION [31:0] $end
$var wire 1 , RESET $end
$var wire 1 . ZERO $end
$var wire 1 / WRITEENABLE $end
$var wire 32 0 TARGET [31:0] $end
$var wire 1 1 SHIFT_TYPE $end
$var wire 8 2 REGOUT2NEGATIVE [7:0] $end
$var wire 8 3 REGOUT2 [7:0] $end
$var wire 8 4 REGOUT1 [7:0] $end
$var wire 32 5 PC_VALUE [31:0] $end
$var wire 2 6 PC_SELECT [1:0] $end
$var wire 32 7 PC [31:0] $end
$var wire 32 8 NEXT [31:0] $end
$var wire 8 9 MUXOUT2 [7:0] $end
$var wire 8 : MUXOUT1 [7:0] $end
$var wire 1 ; ImmediateEnable $end
$var wire 1 < COMPLEMENT $end
$var wire 1 = BNE $end
$var wire 8 > ALURESULT [7:0] $end
$var wire 3 ? ALUOP [2:0] $end
$var reg 8 @ IMMEDIATE [7:0] $end
$var reg 8 A OFFSET [7:0] $end
$var reg 8 B OPCODE [7:0] $end
$var reg 3 C READREG1 [2:0] $end
$var reg 3 D READREG2 [2:0] $end
$var reg 3 E WRITEREG [2:0] $end
$scope module ALU1 $end
$var wire 8 F TEMP6 [7:0] $end
$var wire 8 G TEMP7 [7:0] $end
$var wire 8 H TEMP8 [7:0] $end
$var wire 8 I TEMP5 [7:0] $end
$var wire 8 J TEMP4 [7:0] $end
$var wire 8 K TEMP3 [7:0] $end
$var wire 8 L TEMP2 [7:0] $end
$var wire 8 M TEMP1 [7:0] $end
$var wire 1 1 SHIFT_TYPE $end
$var wire 3 N SELECT [2:0] $end
$var wire 8 O RESULT [7:0] $end
$var wire 8 P DATA2 [7:0] $end
$var wire 8 Q DATA1 [7:0] $end
$var reg 1 . ZERO $end
$scope module ADD1 $end
$var wire 8 R RESULT [7:0] $end
$var wire 8 S DATA2 [7:0] $end
$var wire 8 T DATA1 [7:0] $end
$upscope $end
$scope module AND1 $end
$var wire 8 U RESULT [7:0] $end
$var wire 8 V DATA2 [7:0] $end
$var wire 8 W DATA1 [7:0] $end
$upscope $end
$scope module FORWARD1 $end
$var wire 8 X RESULT [7:0] $end
$var wire 8 Y DATA [7:0] $end
$upscope $end
$scope module MUX1 $end
$var wire 8 Z DATA1 [7:0] $end
$var wire 8 [ DATA2 [7:0] $end
$var wire 8 \ DATA3 [7:0] $end
$var wire 8 ] DATA6 [7:0] $end
$var wire 8 ^ DATA7 [7:0] $end
$var wire 8 _ DATA8 [7:0] $end
$var wire 3 ` SELECT [2:0] $end
$var wire 8 a DATA5 [7:0] $end
$var wire 8 b DATA4 [7:0] $end
$var reg 8 c OUT [7:0] $end
$upscope $end
$scope module OR1 $end
$var wire 8 d RESULT [7:0] $end
$var wire 8 e DATA2 [7:0] $end
$var wire 8 f DATA1 [7:0] $end
$upscope $end
$scope module SHIFTER1 $end
$var wire 1 1 SHIFT_TYPE $end
$var wire 8 g SHIFT [7:0] $end
$var wire 8 h RIGHT [7:0] $end
$var wire 8 i LEFT [7:0] $end
$var wire 8 j IN [7:0] $end
$var reg 8 k OUT [7:0] $end
$scope module LS1 $end
$var wire 4 l SHIFT [3:0] $end
$var wire 1 m Z8 $end
$var wire 1 n Z7 $end
$var wire 1 o Z6 $end
$var wire 1 p Z5 $end
$var wire 1 q Z4 $end
$var wire 1 r Z3 $end
$var wire 1 s Z2 $end
$var wire 1 t Z1 $end
$var wire 1 u Y8 $end
$var wire 1 v Y7 $end
$var wire 1 w Y6 $end
$var wire 1 x Y5 $end
$var wire 1 y Y4 $end
$var wire 1 z Y3 $end
$var wire 1 { Y2 $end
$var wire 1 | Y1 $end
$var wire 1 } X8 $end
$var wire 1 ~ X7 $end
$var wire 1 !" X6 $end
$var wire 1 "" X5 $end
$var wire 1 #" X4 $end
$var wire 1 $" X3 $end
$var wire 1 %" X2 $end
$var wire 1 &" X1 $end
$var wire 8 '" IN [7:0] $end
$var wire 1 (" F8 $end
$var wire 1 )" F7 $end
$var wire 1 *" F6 $end
$var wire 1 +" F5 $end
$var wire 1 ," F4 $end
$var wire 1 -" F3 $end
$var wire 1 ." F2 $end
$var wire 1 /" F1 $end
$var reg 8 0" OUT [7:0] $end
$var reg 1 1" S1 $end
$var reg 1 2" S2 $end
$var reg 1 3" S3 $end
$var reg 1 4" S4 $end
$scope module L1 $end
$var wire 1 5" IN1 $end
$var wire 1 6" IN2 $end
$var wire 1 7" OR1 $end
$var wire 1 8" OR2 $end
$var wire 1 &" OUT $end
$var wire 1 1" S $end
$upscope $end
$scope module L10 $end
$var wire 1 9" IN2 $end
$var wire 1 :" OR1 $end
$var wire 1 ;" OR2 $end
$var wire 1 { OUT $end
$var wire 1 2" S $end
$var wire 1 %" IN1 $end
$upscope $end
$scope module L11 $end
$var wire 1 &" IN2 $end
$var wire 1 <" OR1 $end
$var wire 1 =" OR2 $end
$var wire 1 z OUT $end
$var wire 1 2" S $end
$var wire 1 $" IN1 $end
$upscope $end
$scope module L12 $end
$var wire 1 >" OR1 $end
$var wire 1 ?" OR2 $end
$var wire 1 y OUT $end
$var wire 1 2" S $end
$var wire 1 %" IN2 $end
$var wire 1 #" IN1 $end
$upscope $end
$scope module L13 $end
$var wire 1 @" OR1 $end
$var wire 1 A" OR2 $end
$var wire 1 x OUT $end
$var wire 1 2" S $end
$var wire 1 $" IN2 $end
$var wire 1 "" IN1 $end
$upscope $end
$scope module L14 $end
$var wire 1 B" OR1 $end
$var wire 1 C" OR2 $end
$var wire 1 w OUT $end
$var wire 1 2" S $end
$var wire 1 #" IN2 $end
$var wire 1 !" IN1 $end
$upscope $end
$scope module L15 $end
$var wire 1 D" OR1 $end
$var wire 1 E" OR2 $end
$var wire 1 v OUT $end
$var wire 1 2" S $end
$var wire 1 "" IN2 $end
$var wire 1 ~ IN1 $end
$upscope $end
$scope module L16 $end
$var wire 1 F" OR1 $end
$var wire 1 G" OR2 $end
$var wire 1 u OUT $end
$var wire 1 2" S $end
$var wire 1 !" IN2 $end
$var wire 1 } IN1 $end
$upscope $end
$scope module L17 $end
$var wire 1 H" IN2 $end
$var wire 1 I" OR1 $end
$var wire 1 J" OR2 $end
$var wire 1 t OUT $end
$var wire 1 3" S $end
$var wire 1 | IN1 $end
$upscope $end
$scope module L18 $end
$var wire 1 { IN1 $end
$var wire 1 K" IN2 $end
$var wire 1 L" OR1 $end
$var wire 1 M" OR2 $end
$var wire 1 s OUT $end
$var wire 1 3" S $end
$upscope $end
$scope module L19 $end
$var wire 1 z IN1 $end
$var wire 1 N" IN2 $end
$var wire 1 O" OR1 $end
$var wire 1 P" OR2 $end
$var wire 1 r OUT $end
$var wire 1 3" S $end
$upscope $end
$scope module L2 $end
$var wire 1 Q" IN1 $end
$var wire 1 R" IN2 $end
$var wire 1 S" OR1 $end
$var wire 1 T" OR2 $end
$var wire 1 %" OUT $end
$var wire 1 1" S $end
$upscope $end
$scope module L20 $end
$var wire 1 y IN1 $end
$var wire 1 U" IN2 $end
$var wire 1 V" OR1 $end
$var wire 1 W" OR2 $end
$var wire 1 q OUT $end
$var wire 1 3" S $end
$upscope $end
$scope module L21 $end
$var wire 1 x IN1 $end
$var wire 1 X" OR1 $end
$var wire 1 Y" OR2 $end
$var wire 1 p OUT $end
$var wire 1 3" S $end
$var wire 1 | IN2 $end
$upscope $end
$scope module L22 $end
$var wire 1 w IN1 $end
$var wire 1 { IN2 $end
$var wire 1 Z" OR1 $end
$var wire 1 [" OR2 $end
$var wire 1 o OUT $end
$var wire 1 3" S $end
$upscope $end
$scope module L23 $end
$var wire 1 v IN1 $end
$var wire 1 z IN2 $end
$var wire 1 \" OR1 $end
$var wire 1 ]" OR2 $end
$var wire 1 n OUT $end
$var wire 1 3" S $end
$upscope $end
$scope module L24 $end
$var wire 1 u IN1 $end
$var wire 1 y IN2 $end
$var wire 1 ^" OR1 $end
$var wire 1 _" OR2 $end
$var wire 1 m OUT $end
$var wire 1 3" S $end
$upscope $end
$scope module L25 $end
$var wire 1 t IN1 $end
$var wire 1 `" IN2 $end
$var wire 1 a" OR1 $end
$var wire 1 b" OR2 $end
$var wire 1 /" OUT $end
$var wire 1 4" S $end
$upscope $end
$scope module L26 $end
$var wire 1 s IN1 $end
$var wire 1 c" IN2 $end
$var wire 1 d" OR1 $end
$var wire 1 e" OR2 $end
$var wire 1 ." OUT $end
$var wire 1 4" S $end
$upscope $end
$scope module L27 $end
$var wire 1 r IN1 $end
$var wire 1 f" IN2 $end
$var wire 1 g" OR1 $end
$var wire 1 h" OR2 $end
$var wire 1 -" OUT $end
$var wire 1 4" S $end
$upscope $end
$scope module L28 $end
$var wire 1 q IN1 $end
$var wire 1 i" IN2 $end
$var wire 1 j" OR1 $end
$var wire 1 k" OR2 $end
$var wire 1 ," OUT $end
$var wire 1 4" S $end
$upscope $end
$scope module L29 $end
$var wire 1 p IN1 $end
$var wire 1 l" IN2 $end
$var wire 1 m" OR1 $end
$var wire 1 n" OR2 $end
$var wire 1 +" OUT $end
$var wire 1 4" S $end
$upscope $end
$scope module L3 $end
$var wire 1 o" IN1 $end
$var wire 1 p" IN2 $end
$var wire 1 q" OR1 $end
$var wire 1 r" OR2 $end
$var wire 1 $" OUT $end
$var wire 1 1" S $end
$upscope $end
$scope module L30 $end
$var wire 1 o IN1 $end
$var wire 1 s" IN2 $end
$var wire 1 t" OR1 $end
$var wire 1 u" OR2 $end
$var wire 1 *" OUT $end
$var wire 1 4" S $end
$upscope $end
$scope module L31 $end
$var wire 1 n IN1 $end
$var wire 1 v" IN2 $end
$var wire 1 w" OR1 $end
$var wire 1 x" OR2 $end
$var wire 1 )" OUT $end
$var wire 1 4" S $end
$upscope $end
$scope module L32 $end
$var wire 1 m IN1 $end
$var wire 1 y" IN2 $end
$var wire 1 z" OR1 $end
$var wire 1 {" OR2 $end
$var wire 1 (" OUT $end
$var wire 1 4" S $end
$upscope $end
$scope module L4 $end
$var wire 1 |" IN1 $end
$var wire 1 }" IN2 $end
$var wire 1 ~" OR1 $end
$var wire 1 !# OR2 $end
$var wire 1 #" OUT $end
$var wire 1 1" S $end
$upscope $end
$scope module L5 $end
$var wire 1 "# IN1 $end
$var wire 1 ## IN2 $end
$var wire 1 $# OR1 $end
$var wire 1 %# OR2 $end
$var wire 1 "" OUT $end
$var wire 1 1" S $end
$upscope $end
$scope module L6 $end
$var wire 1 &# IN1 $end
$var wire 1 '# IN2 $end
$var wire 1 (# OR1 $end
$var wire 1 )# OR2 $end
$var wire 1 !" OUT $end
$var wire 1 1" S $end
$upscope $end
$scope module L7 $end
$var wire 1 *# IN1 $end
$var wire 1 +# IN2 $end
$var wire 1 ,# OR1 $end
$var wire 1 -# OR2 $end
$var wire 1 ~ OUT $end
$var wire 1 1" S $end
$upscope $end
$scope module L8 $end
$var wire 1 .# IN1 $end
$var wire 1 /# IN2 $end
$var wire 1 0# OR1 $end
$var wire 1 1# OR2 $end
$var wire 1 } OUT $end
$var wire 1 1" S $end
$upscope $end
$scope module L9 $end
$var wire 1 &" IN1 $end
$var wire 1 2# IN2 $end
$var wire 1 3# OR1 $end
$var wire 1 4# OR2 $end
$var wire 1 | OUT $end
$var wire 1 2" S $end
$upscope $end
$upscope $end
$scope module RS1 $end
$var wire 4 5# SHIFT [3:0] $end
$var wire 1 6# Z8 $end
$var wire 1 7# Z7 $end
$var wire 1 8# Z6 $end
$var wire 1 9# Z5 $end
$var wire 1 :# Z4 $end
$var wire 1 ;# Z3 $end
$var wire 1 <# Z2 $end
$var wire 1 =# Z1 $end
$var wire 1 ># Y8 $end
$var wire 1 ?# Y7 $end
$var wire 1 @# Y6 $end
$var wire 1 A# Y5 $end
$var wire 1 B# Y4 $end
$var wire 1 C# Y3 $end
$var wire 1 D# Y2 $end
$var wire 1 E# Y1 $end
$var wire 1 F# X8 $end
$var wire 1 G# X7 $end
$var wire 1 H# X6 $end
$var wire 1 I# X5 $end
$var wire 1 J# X4 $end
$var wire 1 K# X3 $end
$var wire 1 L# X2 $end
$var wire 1 M# X1 $end
$var wire 8 N# IN [7:0] $end
$var wire 1 O# F8 $end
$var wire 1 P# F7 $end
$var wire 1 Q# F6 $end
$var wire 1 R# F5 $end
$var wire 1 S# F4 $end
$var wire 1 T# F3 $end
$var wire 1 U# F2 $end
$var wire 1 V# F1 $end
$var reg 8 W# OUT [7:0] $end
$var reg 1 X# S1 $end
$var reg 1 Y# S2 $end
$var reg 1 Z# S3 $end
$var reg 1 [# S4 $end
$scope module R1 $end
$var wire 1 \# IN1 $end
$var wire 1 ]# IN2 $end
$var wire 1 ^# OR1 $end
$var wire 1 _# OR2 $end
$var wire 1 F# OUT $end
$var wire 1 X# S $end
$upscope $end
$scope module R10 $end
$var wire 1 `# IN2 $end
$var wire 1 a# OR1 $end
$var wire 1 b# OR2 $end
$var wire 1 ?# OUT $end
$var wire 1 Y# S $end
$var wire 1 G# IN1 $end
$upscope $end
$scope module R11 $end
$var wire 1 F# IN2 $end
$var wire 1 c# OR1 $end
$var wire 1 d# OR2 $end
$var wire 1 @# OUT $end
$var wire 1 Y# S $end
$var wire 1 H# IN1 $end
$upscope $end
$scope module R12 $end
$var wire 1 e# OR1 $end
$var wire 1 f# OR2 $end
$var wire 1 A# OUT $end
$var wire 1 Y# S $end
$var wire 1 G# IN2 $end
$var wire 1 I# IN1 $end
$upscope $end
$scope module R13 $end
$var wire 1 g# OR1 $end
$var wire 1 h# OR2 $end
$var wire 1 B# OUT $end
$var wire 1 Y# S $end
$var wire 1 H# IN2 $end
$var wire 1 J# IN1 $end
$upscope $end
$scope module R14 $end
$var wire 1 i# OR1 $end
$var wire 1 j# OR2 $end
$var wire 1 C# OUT $end
$var wire 1 Y# S $end
$var wire 1 I# IN2 $end
$var wire 1 K# IN1 $end
$upscope $end
$scope module R15 $end
$var wire 1 k# OR1 $end
$var wire 1 l# OR2 $end
$var wire 1 D# OUT $end
$var wire 1 Y# S $end
$var wire 1 J# IN2 $end
$var wire 1 L# IN1 $end
$upscope $end
$scope module R16 $end
$var wire 1 m# OR1 $end
$var wire 1 n# OR2 $end
$var wire 1 E# OUT $end
$var wire 1 Y# S $end
$var wire 1 K# IN2 $end
$var wire 1 M# IN1 $end
$upscope $end
$scope module R17 $end
$var wire 1 o# IN2 $end
$var wire 1 p# OR1 $end
$var wire 1 q# OR2 $end
$var wire 1 6# OUT $end
$var wire 1 Z# S $end
$var wire 1 ># IN1 $end
$upscope $end
$scope module R18 $end
$var wire 1 ?# IN1 $end
$var wire 1 r# IN2 $end
$var wire 1 s# OR1 $end
$var wire 1 t# OR2 $end
$var wire 1 7# OUT $end
$var wire 1 Z# S $end
$upscope $end
$scope module R19 $end
$var wire 1 @# IN1 $end
$var wire 1 u# IN2 $end
$var wire 1 v# OR1 $end
$var wire 1 w# OR2 $end
$var wire 1 8# OUT $end
$var wire 1 Z# S $end
$upscope $end
$scope module R2 $end
$var wire 1 x# IN1 $end
$var wire 1 y# IN2 $end
$var wire 1 z# OR1 $end
$var wire 1 {# OR2 $end
$var wire 1 G# OUT $end
$var wire 1 X# S $end
$upscope $end
$scope module R20 $end
$var wire 1 A# IN1 $end
$var wire 1 |# IN2 $end
$var wire 1 }# OR1 $end
$var wire 1 ~# OR2 $end
$var wire 1 9# OUT $end
$var wire 1 Z# S $end
$upscope $end
$scope module R21 $end
$var wire 1 B# IN1 $end
$var wire 1 !$ OR1 $end
$var wire 1 "$ OR2 $end
$var wire 1 :# OUT $end
$var wire 1 Z# S $end
$var wire 1 ># IN2 $end
$upscope $end
$scope module R22 $end
$var wire 1 C# IN1 $end
$var wire 1 ?# IN2 $end
$var wire 1 #$ OR1 $end
$var wire 1 $$ OR2 $end
$var wire 1 ;# OUT $end
$var wire 1 Z# S $end
$upscope $end
$scope module R23 $end
$var wire 1 D# IN1 $end
$var wire 1 @# IN2 $end
$var wire 1 %$ OR1 $end
$var wire 1 &$ OR2 $end
$var wire 1 <# OUT $end
$var wire 1 Z# S $end
$upscope $end
$scope module R24 $end
$var wire 1 E# IN1 $end
$var wire 1 A# IN2 $end
$var wire 1 '$ OR1 $end
$var wire 1 ($ OR2 $end
$var wire 1 =# OUT $end
$var wire 1 Z# S $end
$upscope $end
$scope module R25 $end
$var wire 1 6# IN1 $end
$var wire 1 )$ IN2 $end
$var wire 1 *$ OR1 $end
$var wire 1 +$ OR2 $end
$var wire 1 O# OUT $end
$var wire 1 [# S $end
$upscope $end
$scope module R26 $end
$var wire 1 7# IN1 $end
$var wire 1 ,$ IN2 $end
$var wire 1 -$ OR1 $end
$var wire 1 .$ OR2 $end
$var wire 1 P# OUT $end
$var wire 1 [# S $end
$upscope $end
$scope module R27 $end
$var wire 1 8# IN1 $end
$var wire 1 /$ IN2 $end
$var wire 1 0$ OR1 $end
$var wire 1 1$ OR2 $end
$var wire 1 Q# OUT $end
$var wire 1 [# S $end
$upscope $end
$scope module R28 $end
$var wire 1 9# IN1 $end
$var wire 1 2$ IN2 $end
$var wire 1 3$ OR1 $end
$var wire 1 4$ OR2 $end
$var wire 1 R# OUT $end
$var wire 1 [# S $end
$upscope $end
$scope module R29 $end
$var wire 1 :# IN1 $end
$var wire 1 5$ IN2 $end
$var wire 1 6$ OR1 $end
$var wire 1 7$ OR2 $end
$var wire 1 S# OUT $end
$var wire 1 [# S $end
$upscope $end
$scope module R3 $end
$var wire 1 8$ IN1 $end
$var wire 1 9$ IN2 $end
$var wire 1 :$ OR1 $end
$var wire 1 ;$ OR2 $end
$var wire 1 H# OUT $end
$var wire 1 X# S $end
$upscope $end
$scope module R30 $end
$var wire 1 ;# IN1 $end
$var wire 1 <$ IN2 $end
$var wire 1 =$ OR1 $end
$var wire 1 >$ OR2 $end
$var wire 1 T# OUT $end
$var wire 1 [# S $end
$upscope $end
$scope module R31 $end
$var wire 1 <# IN1 $end
$var wire 1 ?$ IN2 $end
$var wire 1 @$ OR1 $end
$var wire 1 A$ OR2 $end
$var wire 1 U# OUT $end
$var wire 1 [# S $end
$upscope $end
$scope module R32 $end
$var wire 1 =# IN1 $end
$var wire 1 B$ IN2 $end
$var wire 1 C$ OR1 $end
$var wire 1 D$ OR2 $end
$var wire 1 V# OUT $end
$var wire 1 [# S $end
$upscope $end
$scope module R4 $end
$var wire 1 E$ IN1 $end
$var wire 1 F$ IN2 $end
$var wire 1 G$ OR1 $end
$var wire 1 H$ OR2 $end
$var wire 1 I# OUT $end
$var wire 1 X# S $end
$upscope $end
$scope module R5 $end
$var wire 1 I$ IN1 $end
$var wire 1 J$ IN2 $end
$var wire 1 K$ OR1 $end
$var wire 1 L$ OR2 $end
$var wire 1 J# OUT $end
$var wire 1 X# S $end
$upscope $end
$scope module R6 $end
$var wire 1 M$ IN1 $end
$var wire 1 N$ IN2 $end
$var wire 1 O$ OR1 $end
$var wire 1 P$ OR2 $end
$var wire 1 K# OUT $end
$var wire 1 X# S $end
$upscope $end
$scope module R7 $end
$var wire 1 Q$ IN1 $end
$var wire 1 R$ IN2 $end
$var wire 1 S$ OR1 $end
$var wire 1 T$ OR2 $end
$var wire 1 L# OUT $end
$var wire 1 X# S $end
$upscope $end
$scope module R8 $end
$var wire 1 U$ IN1 $end
$var wire 1 V$ IN2 $end
$var wire 1 W$ OR1 $end
$var wire 1 X$ OR2 $end
$var wire 1 M# OUT $end
$var wire 1 X# S $end
$upscope $end
$scope module R9 $end
$var wire 1 F# IN1 $end
$var wire 1 Y$ IN2 $end
$var wire 1 Z$ OR1 $end
$var wire 1 [$ OR2 $end
$var wire 1 ># OUT $end
$var wire 1 Y# S $end
$upscope $end
$upscope $end
$upscope $end
$upscope $end
$scope module BNE1 $end
$var wire 1 = OUT $end
$var wire 1 . ZERO $end
$var wire 2 \$ BEQ [1:0] $end
$upscope $end
$scope module CONTROLUNIT $end
$var wire 8 ]$ OPCODE [7:0] $end
$var reg 3 ^$ ALUOP [2:0] $end
$var reg 1 < COMPLEMENT $end
$var reg 1 ; IMMEDIATE $end
$var reg 2 _$ PC_SELECTOR [1:0] $end
$var reg 1 1 SHIFT_TYPE $end
$var reg 1 / WRITEENABLE $end
$upscope $end
$scope module MUX1 $end
$var wire 1 < SELECT $end
$var wire 8 `$ DATA2 [7:0] $end
$var wire 8 a$ DATA1 [7:0] $end
$var reg 8 b$ RESULT [7:0] $end
$upscope $end
$scope module MUX2 $end
$var wire 8 c$ DATA1 [7:0] $end
$var wire 8 d$ DATA2 [7:0] $end
$var wire 1 ; SELECT $end
$var reg 8 e$ RESULT [7:0] $end
$upscope $end
$scope module NEGATIVE_VAL $end
$var wire 8 f$ INPUT [7:0] $end
$var reg 8 g$ OUTPUT [7:0] $end
$upscope $end
$scope module PC1 $end
$var wire 1 * CLK $end
$var wire 1 , RESET $end
$var wire 32 h$ NEXT_PC [31:0] $end
$var reg 32 i$ PC [31:0] $end
$upscope $end
$scope module PC_UPDATE1 $end
$var wire 1 = BNE $end
$var wire 2 j$ SELECT [1:0] $end
$var wire 1 . ZERO $end
$var wire 32 k$ TARGET [31:0] $end
$var wire 32 l$ PC_VALUE [31:0] $end
$var reg 32 m$ NEXT [31:0] $end
$upscope $end
$scope module REGISTERFILE $end
$var wire 1 * CLOCK $end
$var wire 8 n$ IN [7:0] $end
$var wire 3 o$ INADDRESS [2:0] $end
$var wire 3 p$ OUT1ADDRESS [2:0] $end
$var wire 3 q$ OUT2ADDRESS [2:0] $end
$var wire 1 , RESET $end
$var wire 1 / WRITE $end
$var reg 8 r$ OUT1 [7:0] $end
$var reg 8 s$ OUT2 [7:0] $end
$var integer 32 t$ i [31:0] $end
$upscope $end
$scope module TARGET_PC1 $end
$var wire 8 u$ OFFSET [7:0] $end
$var wire 32 v$ PC [31:0] $end
$var wire 32 w$ VAL [31:0] $end
$var wire 32 x$ SE [31:0] $end
$var reg 32 y$ PC_TEMP [31:0] $end
$var reg 32 z$ TARGET [31:0] $end
$var reg 32 {$ temp [31:0] $end
$scope module S1 $end
$var wire 32 |$ OUT [31:0] $end
$var wire 32 }$ IN [31:0] $end
$upscope $end
$scope module SE1 $end
$var wire 8 ~$ IN [7:0] $end
$var wire 32 !% OUT [31:0] $end
$upscope $end
$upscope $end
$upscope $end
$upscope $end
$enddefinitions $end
#0
$dumpvars
bx !%
bx ~$
bx }$
bx00 |$
bx00 {$
bx z$
bx y$
bx x$
bx00 w$
bx v$
bx u$
b1000 t$
bx s$
bx r$
bx q$
bx p$
bx o$
bx n$
bx m$
bx l$
bx k$
bx j$
bx i$
bx h$
bx g$
bx f$
bx e$
bx d$
bx c$
bx b$
bx a$
bx `$
bx _$
bx ^$
bx ]$
bx \$
0[$
xZ$
0Y$
0X$
xW$
xV$
xU$
0T$
xS$
xR$
xQ$
0P$
xO$
xN$
xM$
0L$
xK$
xJ$
xI$
0H$
xG$
xF$
xE$
0D$
xC$
0B$
0A$
x@$
0?$
0>$
x=$
0<$
0;$
x:$
x9$
x8$
07$
x6$
05$
04$
x3$
02$
01$
x0$
0/$
0.$
x-$
0,$
0+$
x*$
0)$
0($
x'$
0&$
x%$
0$$
x#$
0"$
x!$
0~#
x}#
0|#
0{#
xz#
xy#
xx#
0w#
xv#
0u#
0t#
xs#
0r#
0q#
xp#
0o#
0n#
xm#
0l#
xk#
0j#
xi#
0h#
xg#
0f#
xe#
0d#
xc#
0b#
xa#
0`#
0_#
x^#
0]#
x\#
0[#
0Z#
0Y#
0X#
bx W#
xV#
xU#
xT#
xS#
xR#
xQ#
xP#
xO#
bx N#
xM#
xL#
xK#
xJ#
xI#
xH#
xG#
xF#
xE#
xD#
xC#
xB#
xA#
x@#
x?#
x>#
x=#
x<#
x;#
x:#
x9#
x8#
x7#
x6#
bx 5#
04#
x3#
02#
01#
x0#
x/#
x.#
0-#
x,#
x+#
x*#
0)#
x(#
x'#
x&#
0%#
x$#
x##
x"#
0!#
x~"
x}"
x|"
0{"
xz"
0y"
0x"
xw"
0v"
0u"
xt"
0s"
0r"
xq"
xp"
xo"
0n"
xm"
0l"
0k"
xj"
0i"
0h"
xg"
0f"
0e"
xd"
0c"
0b"
xa"
0`"
0_"
x^"
0]"
x\"
0["
xZ"
0Y"
xX"
0W"
xV"
0U"
0T"
xS"
xR"
xQ"
0P"
xO"
0N"
0M"
xL"
0K"
0J"
xI"
0H"
0G"
xF"
0E"
xD"
0C"
xB"
0A"
x@"
0?"
x>"
0="
x<"
0;"
x:"
09"
08"
x7"
06"
x5"
04"
03"
02"
01"
bx 0"
x/"
x."
x-"
x,"
x+"
x*"
x)"
x("
bx '"
x&"
x%"
x$"
x#"
x""
x!"
x~
x}
x|
x{
xz
xy
xx
xw
xv
xu
xt
xs
xr
xq
xp
xo
xn
xm
bx l
bx k
bx j
bx i
bx h
bx g
bx f
bx e
bx d
bx c
bx b
bx a
bx `
bz _
bz ^
bz ]
bx \
bx [
bx Z
bx Y
bx X
bx W
bx V
bx U
bx T
bx S
bx R
bx Q
bx P
bx O
bx N
bx M
bx L
bx K
bx J
bx I
bz H
bz G
bz F
bx E
bx D
bx C
bx B
bx A
bx @
bx ?
bx >
x=
x<
x;
bx :
bx 9
bx 8
bx 7
bx 6
bx 5
bx 4
bx 3
bx 2
x1
bx 0
x/
x.
bx -
1,
bx +
0*
bx )
bx (
bx '
bx &
bx %
bx $
bx #
bx "
bx !
$end
#4
1*
#5
b0 (
b0 '
b0 &
b0 %
b0 $
b0 #
b0 "
b0 !
b0 )
b0 7
b0 i$
b0 v$
b1000 t$
#6
b100 8
b100 h$
b100 m$
b100 5
b100 l$
b100 y$
#7
b10000 {$
b10000 w$
b10000 |$
b1010 @
b1010 d$
b10 D
b10 q$
b0 C
b0 p$
b100 E
b100 o$
b100 x$
b100 }$
b100 !%
b100 A
b100 u$
b100 ~$
b0 B
b0 ]$
b1000000000000001010 +
b1000000000000001010 -
#8
07#
06#
0s
0t
b0 h
b0 W#
0s#
0p#
b0 i
b0 0"
0L"
0I"
0O#
0P#
0Q#
0R#
0S#
0T#
0U#
0V#
0?#
0>#
0/"
0."
0-"
0,"
0+"
0*"
0)"
0("
0{
0|
0*$
0-$
00$
03$
06$
0=$
0@$
0C$
0a#
0c#
0e#
0g#
0i#
0k#
0m#
0Z$
0a"
0d"
0g"
0j"
0m"
0t"
0w"
0z"
0:"
0<"
0>"
0@"
0B"
0D"
0F"
03#
xd#
xf#
xh#
xj#
xl#
xn#
x="
x?"
xA"
xC"
xE"
xG"
1[#
1Y#
14"
12"
0=
b1010 5#
b1010 l
b1010 9
b1010 P
b1010 S
b1010 V
b1010 Y
b1010 e
b1010 g
b1010 e$
0.
01
b0 6
b0 \$
b0 _$
b0 j$
0<
1;
1/
b0 ?
b0 N
b0 `
b0 ^$
0*
#9
0=#
0<#
0;#
0:#
09#
08#
0m
0n
0o
0p
0q
0r
0'$
0%$
0#$
0!$
0}#
0v#
0^"
0\"
0Z"
0X"
0V"
0O"
0E#
0D#
0C#
0B#
0A#
0@#
0u
0v
0w
0x
0y
0z
0n#
0l#
0j#
0h#
0f#
0d#
0G"
0E"
0C"
0A"
0?"
0="
0M#
0L#
0K#
0J#
0I#
0H#
0G#
0F#
0}
0~
0!"
0""
0#"
0$"
0%"
0&"
0W$
0S$
0O$
0K$
0G$
0:$
0z#
0^#
00#
0,#
0(#
0$#
0~"
0q"
0S"
07"
0V$
0U$
0R$
0Q$
0N$
0M$
0J$
0I$
0F$
0E$
09$
08$
0y#
0x#
0\#
0/#
0.#
0+#
0*#
0'#
0&#
0##
0"#
0}"
0|"
0p"
0o"
0R"
0Q"
05"
b0 :
b0 b$
b0 c$
b0 3
b0 a$
b0 f$
b0 s$
b0 4
b0 Q
b0 T
b0 W
b0 f
b0 j
b0 '"
b0 N#
b0 r$
bx1x1x J
bx1x1x b
bx1x1x d
b0x0x0 K
b0x0x0 U
b0x0x0 \
b0 I
b0 a
b0 k
b1010 >
b1010 O
b1010 c
b1010 n$
b1010 M
b1010 X
b1010 Z
b10100 0
b10100 k$
b10100 z$
#10
b0 2
b0 `$
b0 g$
b1010 J
b1010 b
b1010 d
b0 K
b0 U
b0 \
0,
#11
b1010 L
b1010 R
b1010 [
#12
1*
